{
    "rtype": "config",
    "req": {
        "assign": {
            "banks": [0, 0, 0, 0],
            "alus": [0, 0,0, 0, 0, 0, 0, 0, 0, 0, 0, 0],
            "ts_engines": [0, 0, 0, 0],
            "bank_valid_bm_ift": 240,
            "bank_valid_bm_eft": 3
        },
        "filter_mux": [
            {"sel": 123, "mode": 1, "section": 0},
            {"sel": 17, "mode": 1, "section": 0},
            {"sel": 22, "mode": 0, "section": 0},
            {"sel": 23, "mode": 0, "section": 0},
            {"sel": 14, "mode": 0, "section": 0},
            {"sel": 15, "mode": 0, "section": 0},
            {"sel": 34, "mode": 0, "section": 0},
            {"sel": 20, "mode": 0, "section": 0},
            {"sel": 35, "mode": 0, "section": 0}
        ],
        "queries": [
            {
                "gid": 1,
                "filter": {
                    "row": 4,
                    "filter_key":  [0, 0, 0, 0, 0, 10, 0, 0, 0, 0, 0, 0, 0, 0, 0, 0, 0, 0, 0, 0, 0, 0, 0, 0],
                    "filter_mask": [0, 0, 0, 0, 0, 255, 0, 0, 0, 0, 0, 0, 0, 0, 0, 0, 0, 0, 0, 0, 0, 0, 0, 0]
                },
                "reduce": {
                    "row": 1,
                    "reduce_mux": [
                        {"sel": 22, "mode": 0, "section": 0},
                        {"sel": 23, "mode": 0, "section": 0},
                        {"sel": 14, "mode": 0, "section": 0},
                        {"sel": 15, "mode": 0, "section": 0},
                        {"sel": 34, "mode": 0, "section": 0},
                        {"sel": 35, "mode": 0, "section": 0},
                        {"sel": 17, "mode": 1, "section": 0}
                    ],
                    "reduce_mask": [255, 255, 255, 255, 255, 255, 255, 255, 255, 255, 255, 255, 255, 0, 0, 0]
                },
                "alus": [
                    {
                        "alu_idx": 0,
                        "profile_idx": 1,
                        "check_0_attr_select": 0,
                        "check_1_attr_select": 0,
                        "check_0_op": "LESS",
                        "check_1_op": "NONE",
                        "timestamp_0_trig": false,
                        "timestamp_1_trig": false,
                        "timestamp_2_trig": false,
                        "timestamp_3_trig": false,
                        "update_attr_select": 0,
                        "update_op": "INCREMENT",
                        "update_op_param": 29,
                        "export_op": 7,
                        "export_check_mode": 1,
                        "clear_on_periodic_export": true,
                        "clear_on_export": false,
                        "load_trigger": 1,
                        "spec_check_0_thresh": 500000,
                        "spec_check_1_thresh": 2000000,
                        "spec_first_delay_op": "PKT_TS1",
                        "spec_second_delay_op": "SESSION_TS0",
                        "spec_delay_mode": "GENERIC_48BIT",
                        "spec_delay_gran": 0,
                        "spec_delay_offset": 0,
                        "spec_check_attr_0_ts_select": "USE_DELAY_VAL",
                        "spec_check_attr_1_ts_select": "USE_DELAY_VAL",
                        "spec_update_attr_1_ts_select": "USE_SELECTED_ATTR_VAL",
                        "spec_export_thresh": 0,
                        "spec_check_attr_0_gran": "G32Bit",
                        "spec_check_attr_1_gran": "G32Bit",
                        "replace_check_0_byte_count": false,
                        "replace_check_1_byte_count": false,
                        "replace_update_byte_count": false
                    },
                    {
                        "alu_idx": 1,
                        "profile_idx": 1,
                        "check_0_attr_select": 0,
                        "check_1_attr_select": 0,
                        "check_0_op": "GEQ",
                        "check_1_op": "LEQ",
                        "timestamp_0_trig": false,
                        "timestamp_1_trig": false,
                        "timestamp_2_trig": false,
                        "timestamp_3_trig": false,
                        "update_attr_select": 0,
                        "update_op": "INCREMENT",
                        "update_op_param": 29,
                        "export_op": 7,
                        "export_check_mode": 1,
                        "clear_on_periodic_export": true,
                        "clear_on_export": false,
                        "load_trigger": 1,
                        "spec_check_0_thresh": 500000,
                        "spec_check_1_thresh": 4000000,
                        "spec_first_delay_op": "PKT_TS1",
                        "spec_second_delay_op": "SESSION_TS0",
                        "spec_delay_mode": "GENERIC_48BIT",
                        "spec_delay_gran": 0,
                        "spec_delay_offset": 0,
                        "spec_check_attr_0_ts_select": "USE_DELAY_VAL",
                        "spec_check_attr_1_ts_select": "USE_DELAY_VAL",
                        "spec_update_attr_1_ts_select": "USE_SELECTED_ATTR_VAL",
                        "spec_export_thresh": 0,
                        "spec_check_attr_0_gran": "G32Bit",
                        "spec_check_attr_1_gran": "G32Bit",
                        "replace_check_0_byte_count": false,
                        "replace_check_1_byte_count": false,
                        "replace_update_byte_count": false
                    },
                    {
                        "alu_idx": 2,
                        "profile_idx": 1,
                        "check_0_attr_select": 0,
                        "check_1_attr_select": 0,
                        "check_0_op": "GEQ",
                        "check_1_op": "LEQ",
                        "timestamp_0_trig": false,
                        "timestamp_1_trig": false,
                        "timestamp_2_trig": false,
                        "timestamp_3_trig": false,
                        "update_attr_select": 0,
                        "update_op": "INCREMENT",
                        "update_op_param": 29,
                        "export_op": 7,
                        "export_check_mode": 1,
                        "clear_on_periodic_export": true,
                        "clear_on_export": false,
                        "load_trigger": 1,
                        "spec_check_0_thresh": 4000000,
                        "spec_check_1_thresh": 20000000,
                        "spec_first_delay_op": "PKT_TS1",
                        "spec_second_delay_op": "SESSION_TS0",
                        "spec_delay_mode": "GENERIC_48BIT",
                        "spec_delay_gran": 0,
                        "spec_delay_offset": 0,
                        "spec_check_attr_0_ts_select": "USE_DELAY_VAL",
                        "spec_check_attr_1_ts_select": "USE_DELAY_VAL",
                        "spec_update_attr_1_ts_select": "USE_SELECTED_ATTR_VAL",
                        "spec_export_thresh": 0,
                        "spec_check_attr_0_gran": "G32Bit",
                        "spec_check_attr_1_gran": "G32Bit",
                        "replace_check_0_byte_count": false,
                        "replace_check_1_byte_count": false,
                        "replace_update_byte_count": false
                    },
                    {
                        "alu_idx": 3,
                        "profile_idx": 1,
                        "check_0_attr_select": 0,
                        "check_1_attr_select": 0,
                        "check_0_op": "GEQ",
                        "check_1_op": "LEQ",
                        "timestamp_0_trig": false,
                        "timestamp_1_trig": false,
                        "timestamp_2_trig": false,
                        "timestamp_3_trig": false,
                        "update_attr_select": 0,
                        "update_op": "INCREMENT",
                        "update_op_param": 29,
                        "export_op": 7,
                        "export_check_mode": 1,
                        "clear_on_periodic_export": true,
                        "clear_on_export": false,
                        "load_trigger": 1,
                        "spec_check_0_thresh": 20000000,
                        "spec_check_1_thresh": 40000000,
                        "spec_first_delay_op": "PKT_TS1",
                        "spec_second_delay_op": "SESSION_TS0",
                        "spec_delay_mode": "GENERIC_48BIT",
                        "spec_delay_gran": 0,
                        "spec_delay_offset": 0,
                        "spec_check_attr_0_ts_select": "USE_DELAY_VAL",
                        "spec_check_attr_1_ts_select": "USE_DELAY_VAL",
                        "spec_update_attr_1_ts_select": "USE_SELECTED_ATTR_VAL",
                        "spec_export_thresh": 0,
                        "spec_check_attr_0_gran": "G32Bit",
                        "spec_check_attr_1_gran": "G32Bit",
                        "replace_check_0_byte_count": false,
                        "replace_check_1_byte_count": false,
                        "replace_update_byte_count": false
                    },
                    {
                        "alu_idx": 4,
                        "profile_idx": 1,
                        "check_0_attr_select": 0,
                        "check_1_attr_select": 0,
                        "check_0_op": "GEQ",
                        "check_1_op": "NONE",
                        "timestamp_0_trig": false,
                        "timestamp_1_trig": false,
                        "timestamp_2_trig": false,
                        "timestamp_3_trig": false,
                        "update_attr_select": 0,
                        "update_op": "INCREMENT",
                        "update_op_param": 29,
                        "export_op": 7,
                        "export_check_mode": 1,
                        "clear_on_periodic_export": true,
                        "clear_on_export": false,
                        "load_trigger": 1,
                        "spec_check_0_thresh": 40000000,
                        "spec_check_1_thresh": 200000,
                        "spec_first_delay_op": "PKT_TS1",
                        "spec_second_delay_op": "SESSION_TS0",
                        "spec_delay_mode": "GENERIC_48BIT",
                        "spec_delay_gran": 0,
                        "spec_delay_offset": 0,
                        "spec_check_attr_0_ts_select": "USE_DELAY_VAL",
                        "spec_check_attr_1_ts_select": "USE_DELAY_VAL",
                        "spec_update_attr_1_ts_select": "USE_SELECTED_ATTR_VAL",
                        "spec_export_thresh": 0,
                        "spec_check_attr_0_gran": "G32Bit",
                        "spec_check_attr_1_gran": "G32Bit",
                        "replace_check_0_byte_count": false,
                        "replace_check_1_byte_count": false,
                        "replace_update_byte_count": false
                    },
                    {
                        "alu_idx": 5,
                        "profile_idx": 1,
                        "check_0_attr_select": 0,
                        "check_1_attr_select": 0,
                        "check_0_op": "PASS",
                        "check_1_op": "PASS",
                        "timestamp_0_trig": false,
                        "timestamp_1_trig": false,
                        "timestamp_2_trig": false,
                        "timestamp_3_trig": false,
                        "update_attr_select": 3,
                        "update_op": "UPDATE_EWMA",
                        "update_op_param": 10,
                        "export_op": 7,
                        "export_check_mode": 1,
                        "clear_on_periodic_export": true,
                        "clear_on_export": false,
                        "load_trigger": 1,
                        "spec_check_0_thresh": 0,
                        "spec_check_1_thresh": 0,
                        "spec_first_delay_op": "PKT_TS1",
                        "spec_second_delay_op": "SESSION_TS0",
                        "spec_delay_mode": "GENERIC_48BIT",
                        "spec_delay_gran": 0,
                        "spec_delay_offset": 0,
                        "spec_check_attr_0_ts_select": "USE_SELECTED_ATTR_VAL",
                        "spec_check_attr_1_ts_select": "USE_SELECTED_ATTR_VAL",
                        "spec_update_attr_1_ts_select": "USE_DELAY_VAL",
                        "spec_export_thresh": 0,
                        "spec_check_attr_0_gran": "G32Bit",
                        "spec_check_attr_1_gran": "G32Bit",
                        "replace_check_0_byte_count": false,
                        "replace_check_1_byte_count": false,
                        "replace_update_byte_count": false
                    }
                ],
                "pde_pdd_prof": {
                    "profile_id": 1,
                    "pdd_profile": {
                        "alus": [true, true, true, true, true, true, false, false, false, false, false, false],
                        "ts_engines": [true, false, false, false]
                    },
                    "pde_profile": [
                        {"source": "ALU0", "dsts": [57, 56, 55, 54]}, 
                        {"source": "ALU1", "dsts": [53, 52, 51, 50]},
                        {"source": "ALU2", "dsts": [49, 48, 47, 46]}, 
                        {"source": "ALU3", "dsts": [45, 44, 43, 42]},
                        {"source": "ALU4", "dsts": [41, 40, 39, 38]},
                        {"source": "ALU5", "dsts": [37, 36, 35, 34]},
                        {"source": "TS0", "dsts": [63, 62, 61, 60, 59, 58]}
                    ],
                    "export_pde": [
                        {"source": "ALU0", "dsts": [63, 62, 61, 60]}, 
                        {"source": "ALU1", "dsts": [59, 58, 57, 56]},
                        {"source": "ALU2", "dsts": [55, 54, 53, 52]}, 
                        {"source": "ALU3", "dsts": [51, 50, 49, 48]},
                        {"source": "ALU4", "dsts": [47, 46, 45, 44]},
                        {"source": "ALU5", "dsts": [43, 42, 41, 40]}
                    ]
                }
            }
        ]
    }
}